%YAML 1.1
%TAG !u! tag:unity3d.com,2011:
--- !u!78 &1
TagManager:
  serializedVersion: 2
  tags:
  - Fruit
  - Exit
  - Soda
  layers:
  - Default
  - TransparentFX
  - Ignore Raycast
  - 
  - Water
  - UI
  - 
  - 
  - Collision Layer
  - 
  - 
  - 
  - 
  - 
  - 
  - 
  - 
  - 
  - 
  - 
  - 
  - 
  - 
  - 
  - 
  - 
  - 
  - 
  - 
  - 
  - 
  - 
  m_SortingLayers:
  - name: Default
    uniqueID: 0
    locked: 0
  - name: floors
    uniqueID: 3277676789
    locked: 0
  - name: Obstacles
    uniqueID: 2275703143
    locked: 0
  - name: Food
    uniqueID: 2550838539
    locked: 0
  - name: Enemies
    uniqueID: 2799079179
    locked: 0
  - name: Characters
    uniqueID: 2786758791
    locked: 0
